[
  {
    "title": "Blue river (much better in original size - press)",
    "url": "http://farm9.static.flickr.com/8305/7893507666_0d25cd9f30.jpg",
    "date": "Thu, 30 Aug 2012 10:41:00 -0400"
  },
  {
    "title": "Dangerously beautiful paths",
    "url": "http://farm8.static.flickr.com/7275/7550745422_3e323cd79e.jpg",
    "date": "Thu, 12 Jul 2012 03:27:00 -0400"
  },
  {
    "title": "Alpine vineyards (Please press)",
    "url": "http://farm8.static.flickr.com/7001/6709343825_2ac8486408.jpg",
    "date": "Tue, 17 Jan 2012 17:13:00 -0500"
  },
  {
    "title": "Sparkling nature ... Please view on black",
    "url": "http://farm8.static.flickr.com/7006/6689765801_b3f9ab8fa6.jpg",
    "date": "Sat, 14 Jan 2012 17:03:00 -0500"
  },
  {
    "title": "Like on a palm of a hand - Please view on black",
    "url": "http://farm8.static.flickr.com/7168/6477336109_ae49d2e244.jpg",
    "date": "Fri, 09 Dec 2011 10:00:00 -0500"
  },
  {
    "title": "Silver curve - Please view on black",
    "url": "http://farm8.static.flickr.com/7006/6453535439_b6ac71d303.jpg",
    "date": "Mon, 05 Dec 2011 11:18:00 -0500"
  },
  {
    "title": "On the other side - Please view on black",
    "url": "http://farm8.static.flickr.com/7158/6399857349_b9865fb2ce.jpg",
    "date": "Sat, 26 Nov 2011 00:45:00 -0500"
  },
  {
    "title": "Derborence lake inspired.. :)",
    "url": "http://farm7.static.flickr.com/6104/6357185863_d043645a12.jpg",
    "date": "Fri, 18 Nov 2011 07:40:19 -0500"
  },
  {
    "title": "Late sun",
    "url": "http://farm7.static.flickr.com/6221/6318336935_d6d54f85f6.jpg",
    "date": "Sun, 06 Nov 2011 10:52:00 -0500"
  },
  {
    "title": "Is it missing something?",
    "url": "http://farm7.static.flickr.com/6050/6279664899_f411cfb402.jpg",
    "date": "Tue, 25 Oct 2011 10:12:02 -0400"
  },
  {
    "title": "Snow princess..:) (much better - full size)",
    "url": "http://farm7.static.flickr.com/6159/6263221527_6f629d6df7.jpg",
    "date": "Thu, 20 Oct 2011 17:00:00 -0400"
  },
  {
    "title": "A Walk to Remember: Mont des Arts, Brussels, Belgium",
    "url": "http://farm5.static.flickr.com/4111/5113981192_4e74ef57e6.jpg",
    "date": "Tue, 26 Oct 2010 13:33:00 -0400"
  },
  {
    "title": "Bale Of Straw II",
    "url": "http://farm3.static.flickr.com/2640/3820792462_7ab06cea5e.jpg",
    "date": "Fri, 14 Aug 2009 10:49:49 -0400"
  },
  {
    "title": "Derborence lake-Please view on black",
    "url": "http://farm8.static.flickr.com/7007/6667536405_d92ebb6f91.jpg",
    "date": "Tue, 10 Jan 2012 02:20:00 -0500"
  },
  {
    "title": "World above clouds",
    "url": "http://farm8.static.flickr.com/7016/6399710385_8e435d2c73.jpg",
    "date": "Fri, 29 Jan 2010 02:28:00 -0500"
  },
  {
    "title": "Impressions d'automne - Fall impressions",
    "url": "http://farm2.static.flickr.com/1066/5109663877_bec5467bb2.jpg",
    "date": "Sun, 24 Oct 2010 06:35:17 -0400"
  },
  {
    "title": "Bridge",
    "url": "http://farm8.static.flickr.com/7266/7452173966_1dd42c4c04.jpg",
    "date": "Sat, 21 Jul 2012 13:40:00 -0400"
  },
  {
    "title": "Mountain stream",
    "url": "http://farm8.static.flickr.com/7001/6525344811_ac598c814b.jpg",
    "date": "Wed, 18 Aug 2010 03:00:00 -0400"
  },
  {
    "title": "Derborence lake-autumn landscape - Please view on black",
    "url": "http://farm8.static.fli.com/7148/6441628807_b2676b797.jpg",
    "date": "Fri, 02 Dec 2011 17:20:00 -0500"
  },
  {
    "title": "Good Morning Angkor! :: HDR",
    "url": "http://farm3.static.flickr.com/2552/4055450688_a52be7a5dc.jpg",
    "date": "Thu, 29 Oct 2009 06:22:16 -0400"
  },
  {
    "title": "It's Been Too Long",
    "url": "http://farm4.static.flickr.com/3213/2912152462_9cf11eb88e.jpg",
    "date": "Sat, 04 Oct 2008 09:05:57 -0400"
  },
  {
    "title": "I scream, you scream..",
    "url": "http://farm4.static.flickr.com/3068/2620294301_2522a015f5.jpg",
    "date": "Sun, 29 Jun 2008 08:55:13 -0400"
  },
  {
    "title": "Summer IR",
    "url": "http://farm4.static.flickr.com/3712/9013091504_d7b4c0974b.jpg",
    "date": "Tue, 18 Jun 2013 11:11:03 -0400"
  },
  {
    "title": "West Side",
    "url": "http://farm9.static.flickr.com/8340/8171073328_2dc7bbd5e8.jpg",
    "date": "Fri, 09 Nov 2012 22:52:11 -0500"
  },
  {
    "title": "The San Remo",
    "url": "http://farm8.static.flickr.com/7246/7452172852_8e60014a4b.jpg",
    "date": "Wed, 27 Jun 2012 14:58:03 -0400"
  },
  {
    "title": "one fifty: Warmth",
    "url": "http://farm3.static.flickr.com/2669/3680132472_5678405328.jpg",
    "date": "Wed, 01 Jul 2009 19:22:30 -0400"
  },
  {
    "title": "Hola!",
    "url": "http://farm4.static.flickr.com/3410/3253055069_40d8a1c005.jpg",
    "date": "Wed, 04 Feb 2009 13:18:20 -0500"
  },
  {
    "title": "A Walk in The Fog",
    "url": "http://farm4.static.flickr.com/3097/3124754678_f9f38584b7.jpg",
    "date": "Mon, 27 Jul 2009 03:49:44 -0400"
  },
  {
    "title": "The gateway... to your dreams",
    "url": "http://farm4.static.flickr.com/3213/2888886521_e6b05927ff.jpg",
    "date": "Fri, 26 Sep 2008 04:36:02 -0400"
  },
  {
    "title": "Houses, trees and mountain, Libya",
    "url": "http://farm3.static.flickr.com/2026/2228305096_709bfd6863.jpg",
    "date": "Tue, 29 Jan 2008 03:48:38 -0500"
  },
  {
    "title": "Lake Trees",
    "url": "http://farm3.static.flickr.com/2249/2202883848_59cbcaa2df.jpg",
    "date": "Fri, 18 Jan 2008 19:10:05 -0500"
  },
  {
    "title": "Cotton candy Central Park",
    "url": "http://farm8.static.flickr.com/7442/8973375949_777033398c.jpg",
    "date": "Thu, 06 Jun 2013 22:09:30 -0400"
  },
  {
    "title": "Waterfall",
    "url": "http://farm3.static.flickr.com/2225/2442429577_6194243e3c.jpg",
    "date": "Sat, 26 Apr 2008 10:42:59 -0400"
  },
  {
    "title": "Monet Like Skies",
    "url": "http://farm4.static.flickr.com/3709/9568338867_dcfb72a2dc.jpg",
    "date": "Thu, 22 Aug 2013 11:23:19 -0400"
  },
  {
    "title": "Midtown Manhattan as seen from Central Park",
    "url": "http://farm9.static.flickr.com/8310/8028531602_a6bfbc4924.jpg",
    "date": "Sun, 07 Oct 2012 20:37:09 -0400"
  },
  {
    "title": "Wild Wild West",
    "url": "http://farm3.static.flickr.com/2734/4060698821_6be29aebeb.jpg",
    "date": "Sat, 31 Oct 2009 12:59:33 -0400"
  },
  {
    "title": "Three coffees",
    "url": "http://farm9.static.flickr.com/8226/8392664226_a0f22e4f6e.jpg",
    "date": "Fri, 18 Jan 2013 10:17:41 -0500"
  },
  {
    "title": "Fall is here",
    "url": "http://farm9.static.flickr.com/8180/8047490630_b68275b956.jpg",
    "date": "Tue, 02 Oct 2012 11:54:15 -0400"
  },
  {
    "title": "Sheep Meadow",
    "url": "http://farm9.static.flickr.com/8009/7452060312_825e8ab388.jpg",
    "date": "Thu, 12 Jul 2012 12:21:05 -0400"
  },
  {
    "title": "It was you that we were thinking of as we quietly died in the snow. (Explored!)",
    "url": "http://farm5.static.flickr.com/4044/4201492080_c7526b65e5.jpg",
    "date": "Sun, 20 Dec 2009 16:49:45 -0500"
  },
  {
    "title": "Stone Church (Explored 29/01/14 #138>47)",
    "url": "http://farm3.static.flickr.com/2839/12212075675_d39aa407fb.jpg",
    "date": "Wed, 29 Jan 2014 17:39:53 -0500"
  },
  {
    "title": "wish you were here",
    "url": "http://farm8.static.flickr.com/7429/12107311665_40c7d82fdf.jpg",
    "date": "Thu, 23 Jan 2014 15:51:42 -0500"
  },
  {
    "title": "Burning Dream #Flickr12days",
    "url": "http://farm4.static.flickr.com/3766/11314899905_95b8d406bf.jpg",
    "date": "Tue, 10 Dec 2013 17:52:29 -0500"
  },
  {
    "title": "Life is lived on the edge",
    "url": "http://farm8.static.flickr.com/7376/9568341571_ebc7da5d6d.jpg",
    "date": "Thu, 22 Aug 2013 11:23:17 -0400"
  },
  {
    "title": "Every new beginning comes from some other beginning's end",
    "url": "http://farm4.static.flickr.com/3772/9568340667_93f4776a3b.jpg",
    "date": "Thu, 22 Aug 2013 11:23:18 -0400"
  },
  {
    "title": "It Will Rain",
    "url": "http://farm8.static.flickr.com/7011/6593830837_270c1709d1.jpg",
    "date": "Thu, 29 Dec 2011 08:13:00 -0500"
  },
  {
    "title": "Bliss",
    "url": "http://farm4.static.flickr.com/3417/3560048098_a4d0883fab.jpg",
    "date": "Sun, 24 May 2009 12:09:54 -0400"
  },
  {
    "title": "Park Hyatt Lobby [HDR], Explored !!!",
    "url": "http://farm4.static.flickr.com/3008/3034430032_4c6c2a4315.jpg",
    "date": "Sun, 16 Nov 2008 03:31:12 -0500"
  },
  {
    "title": "Central Park, NYC (DSC_0466)",
    "url": "http://farm4.static.flickr.com/3119/2883497135_ff0f566167.jpg",
    "date": "Thu, 03 Jan 2013 01:00:01 -0500"
  },
  {
    "title": "Autumn Glory",
    "url": "http://farm3.static.flickr.com/2140/2102999027_488a3f0d00.jpg",
    "date": "Tue, 11 Dec 2007 11:27:00 -0500"
  },
  {
    "title": "Central Park",
    "url": "http://farm9.static.flickr.com/8487/8171013397_761d7d9477.jpg",
    "date": "Thu, 20 Dec 2012 18:53:00 -0500"
  },
  {
    "title": "Gondola",
    "url": "http://farm9.static.flickr.com/8030/7937306302_343c3dfe6e.jpg",
    "date": "Sat, 08 Sep 2012 12:32:21 -0400"
  },
  {
    "title": "Lavender Dreams",
    "url": "http://farm6.static.flickr.com/5039/5855383215_43dbd8d025.jpg",
    "date": "Tue, 21 Jun 2011 01:58:38 -0400"
  },
  {
    "title": "feel",
    "url": "http://farm5.static.flickr.com/4090/4846031148_d4736f8673.jpg",
    "date": "Sat, 31 Jul 2010 05:07:17 -0400"
  },
  {
    "title": "Old South",
    "url": "http://farm4.static.flickr.com/3352/3249768601_2807faafb3.jpg",
    "date": "Tue, 03 Feb 2009 08:11:49 -0500"
  },
  {
    "title": "rain",
    "url": "http://farm3.static.flickr.com/2724/4331736018_dfc0081457.jpg",
    "date": "Thu, 04 Feb 2010 23:52:39 -0500"
  },
  {
    "title": "Autumn Hillside",
    "url": "http://farm3.static.flickr.com/2810/10543879936_b7ff128f46.jpg",
    "date": "Mon, 28 Oct 2013 17:33:02 -0400"
  },
  {
    "title": "Autumn in Irati",
    "url": "http://farm7.static.flickr.com/6045/6308896948_efae80e17b.jpg",
    "date": "Thu, 03 Nov 2011 06:46:15 -0400"
  },
  {
    "title": "...",
    "url": "http://farm5.static.flickr.com/4129/5216006296_2e570488fe.jpg",
    "date": "Sun, 28 Nov 2010 17:25:41 -0500"
  },
  {
    "title": "From a summer walk",
    "url": "http://farm6.static.flickr.com/5514/11970859236_01607cb12f.jpg",
    "date": "Wed, 15 Jan 2014 17:45:51 -0500"
  },
  {
    "title": "Sometimes your only available transportation is a leap of faith",
    "url": "http://farm4.static.flickr.com/3692/9829915423_fc6cda331b.jpg",
    "date": "Thu, 19 Sep 2013 23:36:34 -0400"
  },
  {
    "title": "Good Job!",
    "url": "http://farm3.staticflickr.com/2339/2245983695_7a106704ac_b.jpg",
    "date": "Wed, 26 Feb 2014 20:32:00 -0400"
  },
  {
    "title": "Very Calm",
    "url": "http://farm8.static.flickr.com/7411/8727352568_ae9f9016b6.jpg",
    "date": "Fri, 10 May 2013 17:37:10 -0400"
  },
  {
    "title": "Luminous journey through the clouds",
    "url": "http://farm5.static.flickr.com/4120/4759731675_383480ce0c.jpg",
    "date": "Sun, 04 Jul 2010 08:35:14 -0400"
  },
  {
    "title": "Rock Star",
    "url": "http://farm4.static.flickr.com/3336/3225809082_452dde9eb6.jpg",
    "date": "Sun, 25 Jan 2009 11:06:49 -0500"
  },
  {
    "title": "Paris - Trocadéro - 24-12-2007 - 21h33",
    "url": "http://farm3.static.flickr.com/2065/2150848285_eebb905504.jpg",
    "date": "Mon, 31 Dec 2007 03:59:54 -0500"
  },
  {
    "title": "Endlessly [Explored]",
    "url": "http://farm8.static.flickr.com/7052/6929474255_3e95f17845.jpg",
    "date": "Sat, 25 Feb 2012 16:32:16 -0500"
  },
  {
    "title": "The sunlight on the garden (Tribute to Loui MacNiece)",
    "url": "http://farm4.static.flickr.com/3140/2694042772_73f12ed70d.jpg",
    "date": "Tue, 22 Jul 2008 17:35:16 -0400"
  },
  {
    "title": "Last Light",
    "url": "http://farm6.static.flickr.com/5492/9537611403_ffab22359b.jpg",
    "date": "Sun, 18 Aug 2013 13:29:45 -0400"
  },
  {
    "title": "Softly the evening came",
    "url": "http://farm9.static.flickr.com/8416/8705306787_82786d5873.jpg",
    "date": "Fri, 03 May 2013 22:03:27 -0400"
  },
  {
    "title": "Untitled",
    "url": "http://farm6.static.flickr.com/5232/8412014762_18b99dfafd.jpg",
    "date": "Fri, 25 Jan 2013 10:45:06 -0500"
  },
  {
    "title": "Midtown Manhattan",
    "url": "http://farm9.static.flickr.com/8429/7799715402_3f94eea472.jpg",
    "date": "Fri, 17 Aug 2012 00:27:16 -0400"
  },
  {
    "title": "Blea Tarn",
    "url": "http://farm8.static.flickr.com/7168/6777404151_2a3a8ee9cb.jpg",
    "date": "Mon, 30 Jan 2012 03:00:19 -0500"
  },
  {
    "title": "136/365 hold me closer tiny dancer",
    "url": "http://farm6.static.flickr.com/5205/5726967967_963c379d9d.jpg",
    "date": "Mon, 16 May 2011 14:37:15 -0400"
  },
  {
    "title": "One of the best skies of my homeland - Uno dei cieli migliori della mia terra",
    "url": "http://farm3.static.flickr.com/2710/4535499241_1688feefd9.jpg",
    "date": "Mon, 19 Apr 2010 17:15:39 -0400"
  },
  {
    "title": "Ghostly procession",
    "url": "http://farm3.static.flickr.com/2595/4229817677_72b9648b05.jpg",
    "date": "Thu, 31 Dec 2009 00:44:28 -0500"
  },
  {
    "title": "West of the Moon, East of the Sun. Vojvodina",
    "url": "http://farm8.static.flickr.com/7401/9359522252_eee0c3f2b5.jpg",
    "date": "Wed, 24 Jul 2013 10:48:44 -0400"
  },
  {
    "title": "winner takes it all",
    "url": "http://farm8.static.flickr.com/7183/6846596047_2b674eea79.jpg",
    "date": "Thu, 09 Feb 2012 09:45:48 -0500"
  },
  {
    "title": "san francisco.......",
    "url": "http://farm4.static.flickr.com/3060/5856996431_1d1106108e.jpg",
    "date": "Tue, 21 Jun 2011 17:32:10 -0400"
  },
  {
    "title": "Colwick Sunrise (Explored :D)",
    "url": "http://farm6.static.flickr.com/5090/5323867607_76455eb49d.jpg",
    "date": "Tue, 04 Jan 2011 12:44:16 -0500"
  },
  {
    "title": "Bread",
    "url": "http://farm3.static.flickr.com/2887/9452961094_66e82aea07.jpg",
    "date": "Tue, 06 Aug 2013 11:48:17 -0400"
  },
  {
    "title": "Light at the end of the tunnel",
    "url": "http://farm9.static.flickr.com/8210/8163341852_46079bfd27.jpg",
    "date": "Wed, 24 Jul 2013 12:31:00 -0400"
  },
  {
    "title": "Happiness does not consist in pastimes and amusements but in virtuous activities.",
    "url": "http://farm7.static.flickr.com/6121/6020958812_5837c43ab1.jpg",
    "date": "Mon, 08 Aug 2011 00:39:13 -0400"
  },
  {
    "title": "...thinking about years gone by",
    "url": "http://farm4.static.flickr.com/3070/5732731152_8fdba8a62c.jpg",
    "date": "Wed, 18 May 2011 04:16:39 -0400"
  },
  {
    "title": "Forest Nymph",
    "url": "http://farm6.static.flickr.com/5060/5473451568_02e30f3050.jpg",
    "date": "Thu, 24 Feb 2011 03:37:19 -0500"
  },
  {
    "title": "Winding roads of Scotland",
    "url": "http://farm6.static.flickr.com/5086/5327970170_187d4d8050.jpg",
    "date": "Wed, 05 Jan 2011 13:56:16 -0500"
  },
  {
    "title": "amour",
    "url": "http://farm5.static.flickr.com/4122/4779466330_2f2cafdf0b.jpg",
    "date": "Sat, 10 Jul 2010 03:19:13 -0400"
  },
  {
    "title": "I am going away for a while EXPLORE",
    "url": "http://farm6.static.flickr.com/5271/7087215055_a2d48cef75.jpg",
    "date": "Tue, 17 Apr 2012 09:17:47 -0400"
  },
  {
    "title": "Trocadéro - 7-04-2007 - 7h04",
    "url": "http://farm1.static.flickr.com/167/449668816_4d6a13f1a0.jpg",
    "date": "Sat, 07 Apr 2007 14:07:37 -0400"
  },
  {
    "title": "Ruined_Shepherds_Cottage_m",
    "url": "http://farm4.static.fli.com/3816/10857817796_06c4c74a6.jpg",
    "date": "Thu, 14 Nov 2013 13:43:56 -0500"
  },
  {
    "title": "And you and I reach over the sun",
    "url": "http://farm9.static.flickr.com/8398/8647449552_72695c966c.jpg",
    "date": "Sat, 13 Apr 2013 23:36:24 -0400"
  },
  {
    "title": "Landscape",
    "url": "http://farm4.static.flickr.com/3063/5822993619_439607fbc6.jpg",
    "date": "Sun, 12 Jun 2011 01:04:42 -0400"
  },
  {
    "title": "trees",
    "url": "http://farm6.static.flickr.com/5208/5302704195_3f0fcee4b2.jpg",
    "date": "Mon, 28 Nov 2011 08:50:15 -0500"
  },
  {
    "title": "day sixty nine [explored]",
    "url": "http://farm3.static.flickr.com/2618/3979079778_b8a8583699.jpg",
    "date": "Sat, 03 Oct 2009 23:01:34 -0400"
  },
  {
    "title": "heaven comes...",
    "url": "http://farm8.static.flickr.com/7064/6920829001_8975b59de4.jpg",
    "date": "Wed, 22 Feb 2012 11:45:12 -0500"
  },
  {
    "title": "Giant world (Krabi, Thailand)",
    "url": "http://farm4.static.flickr.com/3686/11099471286_96522e9830.jpg",
    "date": "Thu, 28 Nov 2013 06:39:09 -0500"
  },
  {
    "title": "In the right light, at the right time, everything is extraordinary. ~Aaron Rose",
    "url": "http://farm7.static.flickr.com/6055/6337115970_037d4edbe0.jpg",
    "date": "Sat, 12 Nov 2011 06:25:04 -0500"
  },
  {
    "title": "The lonely cypresses (Winter, early afternoon, sunny day)",
    "url": "http://farm8.static.flickr.com/7442/11607569906_aa3e15d90f.jpg",
    "date": "Sat, 28 Dec 2013 12:42:31 -0500"
  },
  {
    "title": ".. poetry of a day ..",
    "url": "http://farm4.static.flickr.com/3739/12205585033_67efa956df.jpg",
    "date": "Wed, 29 Jan 2014 09:13:29 -0500"
  },
  {
    "title": "For as the heavens are higher than the earth, so are my ways higher than your ways, and my thoughts than your thoughts ~ Isaiah 55:9",
    "url": "http://farm9.static.flickr.com/8045/8083422421_12008433b8.jpg",
    "date": "Sat, 13 Oct 2012 14:09:21 -0400"
  }
]
